{
  "restApiRoot": "/api",
  "host": "0.0.0.0",
  "port": 3000,
  "envSettings": {
    "development": {
      "host": "dev.heat.city",
      "port": "3000"
    },
    "production": {
      "host": "api.heat.city",
      "port": "3000"
    },
    "staging": {
      "host": "heat.city",
      "port": "3001"
    },
    "local": {
      "host": "http://127.0.0.1",
      "port": "3000"
    },
    "testing": {
      "host": "http://127.0.0.1",
      "port": "3000"
    }
  },
  "remoting": {
    "context": false,
    "rest": {
      "normalizeHttpPath": false,
      "xml": false
    },
    "json": {
      "strict": false,
      "limit": "100kb"
    },
    "urlencoded": {
      "extended": true,
      "limit": "100kb"
    },
    "cors": false,
    "handleErrors": false
  },
  "legacyExplorer": false,
  "areas": [
    "guadalajara"
  ],
  "expiration": 365,
  "percentage": 20,
  "photosLimit": 1,
  "socialServices": {
    "foursquare": [
      {
        "secretId": "RSWZMIPAVFFSZGM03RTZZ0CWK1HONPBEQFLSAOZ1TK0HDVRY",
        "clientId": "3SRBKCIMT51I0SU2WKDNZXVOELGRPLKO04ROLG0D012XZPMD"
      },
      {
        "secretId": "24VJYKQP3133IVPBWDYFBBVIZPEURSADYXI5O4J4ODODPFPR",
        "clientId": "K3F5UNQOPQXBNRYXSPOM13O0NBPRX3ZDLEHVGQ3Z041WLNOB"
      },
      {
        "secretId": "E0RZHICMK2ZNDP405R2ZWDVV0J5A31KHFBQLR4RX4FQIEU4R",
        "clientId": "MGFPCCN1AEH1BDY0WTRLTF4VR5SFMFGI55SC3FVUQGKXJFYS"
      },
      {
        "secretId": "5PQYMN2D3OPLC0WBUSUXEROLJUAQJ04JKGOOIHQYUQTLA5RL",
        "clientId": "JN1DRFK4XXBUK4Y1VN1JOJIAWMKENBMZXALOSPTQGVA1OEDV"
      },
      {
        "secretId": "T4PY0XSOU1XYI4C1HEONJCC3RMGUCMRIXHGZYJU3BPI0C0LP",
        "clientId": "3GKWJRGE42ZD2R5MBHXLFUP5JZDG02NTCGUC4BIIWZXRMIXB"
      },
      {
        "secretId": "AUO0WUVFIEJIXAGQPMTZCST0HG0KIC20ICECZPCYPDZ0QSML",
        "clientId": "DBAU0BBWQABQSSF4G3RFCS4SLEA450GDV3EC4LA54YWFOZIK"
      },
      {
        "secretId": "4SKF24SQOUXKFENAQGKDO4MCEN2VJ33E42RMAPMEUJU1SJCF",
        "clientId": "XTCP3WMGOUQESFP400O4FA3BCPDS4TPGV0VNP5OH34MNKNRT"
      },
      {
        "secretId": "LOGT4ZBSTR2G4RDNDXUPSWC5JCZSGRAIIZWJGZ4PIMZDEVKD",
        "clientId": "KOJWZMAPJIAFROEXHCHIAKLJLAKOYCZHJVUBPCP2ENHW5EJF"
      },
      {
        "secretId": "XVQSNARTEWBHRSB4M2RM5LA5SFQNIA2ICFPZGEMQZC23E0YT",
        "clientId": "51AD4KX5HE2QAQI1PI4RX1SFNS1X2W4T5BA35TRBPGWOFUCZ"
      },
      {
        "secretId": "LLDUUILM5KNJPQUMYL4XN45S4KANPIIY4KEV3BN5O3MLYRYS",
        "clientId": "EOGOKU30VVYQ33E1AQGGYJQEGJTBHUUYFEYPDVDYJO1NWX5S"
      }
    ],
    "googleMaps": {
      "key": "AIzaSyAaGsoyNTNWIgJJwCUn9sagg3bvyvQbRfc"
    }
  },
  "firebaseKey": "AAAAwtZ_XC4:APA91bEMr5XIP-3zZ90chGpDPqGzrK7XP2ZHiWgKeqjHtPdqInXJjOrdbS8BHRa-ntnAkw33lVk64W2GleY7hFKCbi-8FtczZSr3qzmMNX1WK-TUsF-muso8XZyVdahLXUtkeGCmytoB",
  "notificationTypes": {
    "friendRequest": "FRIEND_REQUEST",
    "friendResponse": "FRIEND_RESPONSE",
    "establishmentShare": "ESTABLISHMENT_SHARE",
    "friendVisit": "FRIEND_VISIT",
    "visit": "VISIT"
  },
  "kafka": {
    "url": "172.20.130.53:2181",
    "namespace": "kafka-node-bridge"
  },
  "twilio": {
    "number": "+19032657613",
    "numbers": {
      "live": "+19032657613",
      "test": "+15005550006"
    }
  },
  "weatherServices": {
    "openweather": {
      "appId": "6cb3cc699a853eabaf6224e2472dc5cc"
    }
  },
  "seed": {
    "enabled": true,
    "roles": [
      "$admin"
    ],
    "admins": [
      {
        "email": "developer.admin@heatcity.io",
        "password": "H3#7CiTY!2017",
        "emailVerified": true
      },
      {
        "email": "jcasarrubias@itexico.com",
        "password": "=)(/()=",
        "emailVerified": true
      },
      {
        "email": "rvargas@itexico.net",
        "password": "qwerty",
        "emailVerified": true
      },
      {
        "email": "mserrano@itexico.net",
        "password": "tacos",
        "emailVerified": true
      }
    ]
  }
}
