{
  "type": "service_account",
  "project_id": "semiotic-effort-130321",
  "private_key_id": "f7db241228a1a8d91c87d315a2bebe6ad56e6480",
  "private_key": "-----BEGIN PRIVATE KEY-----\nMIIEvAIBADANBgkqhkiG9w0BAQEFAASCBKYwggSiAgEAAoIBAQCrNLbwCdQnwh+L\nk4NmDswJqYgJNHv/Dn6syaGr7likt1twhcm9zVXZ6GACVqAXAjPGoZPjRKpcX91t\nnpn6Pxu8NlWhEStg5TEkuu+Q9w31LmODp6V4qujIr+zt+Exfd5JZx710oqesqEQN\nv+gmYoIOk6cNa/zuIFridwv/C5/V17EnN1w5C/6bwg3fi2MCUmSnrlsMl+6D2At3\nChkIoJ09WXrn58oVp0BLA1aYWjJQNki8FiHfnOv1ts4gkr5b55vnhY/efoaJwlqG\nHCYc2w3djm2QE+aUlrOfUyy5M0HvcliTnwG9PWfehZUTR5BkXKO/lspZM7R1EjrG\n97nHwqTHAgMBAAECggEAc5drzDVWoGFYmwxFsypaaEumJVDiRxqqPE8GcObDwrJp\ncldiFlwEktNpvyptfBtoibud9dvuid/PyKtEmsjxGOo2dkD5YLpdq8bq6J1lNxzS\n45jVB9ucv6LH/QOfzPUWQrexGoaXXuNcz0u6me/4j47xQwaeBsihlDV8S/61M9MK\nLEscX9PnVvWhRYJhgXxclWy+6oN4cFYHGTErCv1EzCtANOa4iWOd1Jtpk9sJFVwT\nwKGPZy/SVcsWYAw6wPbva2smf02uXKAx1VwQbcHqCi15Y5XIOVbn5CdEQZj80Uhd\n8w2Lde8Tdlps16oNlzq2+x7ay46i4/tm6nqtRI/+wQKBgQDbivBOmwko6W3NcMYQ\nFbN6E2c0yjY+AHtO6jZKV9RJ0Y07eBfeCm5X3kYHeIM+PH6uaGc2EB6IVG04Gt5L\nnTYx+Tw6tcVNSyPI7a8HOdhCN5+xE3HrmX+Q3g7iQlOy9Z9mTIxrV60wORUSLsP1\nyLGM0BawTJvnjhC54OTG/mmSCwKBgQDHoul2P+m1AMyLQbb7PSsTwxw38b10aeoj\noWBNiFf3uRfCSEqXS8/A/S+8LNGl/h5k+tUbEBCvmMk2+15L4dAw2SpzIyUsOazh\nLDmeY+ZgwN987pcU2+ZMZLPVlz38+y67sDYA+FErcSZv/xZ7FLNih+G6XXGf5gs0\n3YxmjHQJtQKBgDVWUf+m5tjLrWOGDHiH7SyxXheTMQ5rK4oGmN4C7I5qnLdf+9x0\nCE7Mr5LNEoWiSNyyfLDDxcc1S7ufu3X/YdVOSfWxh5e5s53zMNy+ju23edKZeMnW\nZwmZCWCq4I7P4cQGwO6rRGY82AOs3OrvsUMWowx98DqXZzThkHNQB/H1AoGAMWr7\nfcEeeibje0leIV0n77Fpp9OYgVvCkOVesHKiy/iuj/JTPJaQrAZArcUudHeuUHLj\nE9rrNnyMuqaI1iHk5mKrpmq5xfPU/rxy2umB2suDxypMjeZNYPXAqovQ1XHcRKu/\nAoh1l1pgGHM9vmQGb8qRLw/4k4tflMuO+Mel5c0CgYBEo+hSmNYXhO6ZfnAZnrRF\n3PZVJtkMxBJwlLtGXYJS5Lzcv/2Ez6amfaaswsk99sbofz3ecAbuVi2AuaCbsTld\nO2ZbQHVJcA2XoeZ8x187xNbAWN66ToI+b5Fuf7AYjiJMwXNVdI5/PrtvDGYnkSVR\nmPeyzAGKpEplmwFi0FxsfA==\n-----END PRIVATE KEY-----\n",
  "client_email": "heatcity-storage@semiotic-effort-130321.iam.gserviceaccount.com",
  "client_id": "102642565617099039142",
  "auth_uri": "https://accounts.google.com/o/oauth2/auth",
  "token_uri": "https://accounts.google.com/o/oauth2/token",
  "auth_provider_x509_cert_url": "https://www.googleapis.com/oauth2/v1/certs",
  "client_x509_cert_url": "https://www.googleapis.com/robot/v1/metadata/x509/heatcity-storage%40semiotic-effort-130321.iam.gserviceaccount.com"
}
